Lab 5
…
Year of least milk production: The year in which the least amount of milk was produced is 1975, as shown by the graph.

2017 5 states with most milk: From the table below, the states that produced the most milk in 2017 were: California, Wisconsin, New York, Idaho, and Texas.

filter(milk, year == 2017) %>%
  arrange(desc(milk_produced)) %>%
  group_by(milk_produced)

## # A tibble: 50 x 5
## # Groups:   milk_produced [50]
##    region          state         year milk_produced milk_million
##    <fct>           <fct>        <dbl>         <dbl>        <dbl>
##  1 Pacific         California    2017   39798000000        39798
##  2 Lake States     Wisconsin     2017   30320000000        30320
##  3 Northeast       New York      2017   14912000000        14912
##  4 Mountain        Idaho         2017   14627000000        14627
##  5 Southern Plains Texas         2017   12054000000        12054
##  6 Lake States     Michigan      2017   11231000000        11231
##  7 Northeast       Pennsylvania  2017   10938000000        10938
##  8 Lake States     Minnesota     2017    9864000000         9864
##  9 Mountain        New Mexico    2017    8212000000         8212
## 10 Pacific         Washington    2017    6526000000         6526
## #  with 40 more rows

2017 5 states with least milk: From the table below, the states that produced the least amount of milk in 2017 were: Alaska, Rhode Island, Hawaii, Aransas, and Alabama.

filter(milk, year == 2017) %>%
  arrange((milk_produced)) %>%
  group_by(milk_produced)

## # A tibble: 50 x 5
## # Groups:   milk_produced [50]
##    region       state          year milk_produced milk_million
##    <fct>        <fct>         <dbl>         <dbl>        <dbl>
##  1 Pacific      Alaska         2017       3000000            3
##  2 Northeast    Rhode Island   2017      13000000           13
##  3 Pacific      Hawaii         2017      39000000           39
##  4 Delta States Arkansas       2017      79000000           79
##  5 Southeast    Alabama        2017      89000000           89
##  6 Northeast    Delaware       2017      93000000           93
##  7 Northeast    New Jersey     2017     119000000          119
##  8 Appalachian  West Virginia  2017     127000000          127
##  9 Delta States Mississippi    2017     137000000          137
## 10 Mountain     Wyoming        2017     138000000          138
## #  with 40 more rows
…
